Receiving_UART/Receiving_UART.sim/sim_1/behav/xsim/dump.vcd
$date
   Fri Mar  8 15:54:14 2024
$end
$version
  2019.2
$end
$timescale
  1ps
$end
$scope module UART_RX_TB $end
$var reg 1 ! r_Clock $end
$var reg 1 " r_RX_Serial $end
$var wire 8 # w_RX_Byte [7:0] $end
$var wire 1 $ is_full $end
$var parameter 32 % c_CLOCK_PERIOD_NS [31:0] $end
$var parameter 32 & c_CLKS_PER_BIT [31:0] $end
$var parameter 32 ' c_BIT_PERIOD [31:0] $end
$scope module UART_RX_INST $end
$var wire 1 ( i_Clock $end
$var wire 1 ) i_RX_Serial $end
$var wire 1 * o_RX_DV $end
$var wire 8 # o_RX_Byte [7:0] $end
$var reg 8 + r_Clock_Count [7:0] $end
$var reg 3 , r_Bit_Index [2:0] $end
$var reg 8 - r_RX_Byte [7:0] $end
$var reg 1 . r_RX_DV $end
$var reg 3 / r_SM_Main [2:0] $end
$var parameter 32 0 CLKS_PER_BIT [31:0] $end
$var parameter 3 1 IDLE [2:0] $end
$var parameter 3 2 RX_START_BIT [2:0] $end
$var parameter 3 3 RX_DATA_BITS [2:0] $end
$var parameter 3 4 RX_STOP_BIT [2:0] $end
$var parameter 3 5 CLEANUP [2:0] $end
$upscope $end
$scope task UART_WRITE_BYTE $end
$var reg 8 6 i_Data [7:0] $end
$var integer 32 7 ii $end
$upscope $end
$upscope $end
$enddefinitions $end
#0
$dumpvars
0!
1"
b0 #
z$
b1010 %
b10100010110001 &
b11001011011100111 '
0(
1)
0*
b0 +
b0 ,
b0 -
0.
b0 /
b10100010110001 0
b0 1
b1 2
b10 3
b11 4
b100 5
bx 6
bx 7
$end
#5000
1!
0"
1(
0)
b0 +
b0 ,
0.
b0 /
b110111 6
#10000
0!
0(
#15000
1!
1(
b0 +
b0 ,
0.
b1 /
#20000
0!
0(
#25000
1!
1(
b1 +
b1 /
#30000
0!
0(
#35000
1!
1(
b10 +
b1 /
#40000
0!
0(
#45000
1!
1(
b11 +
b1 /
#50000
0!
0(
#55000
1!
1(
b100 +
b1 /
#60000
0!
0(
#65000
1!
1(
b101 +
b1 /
#70000
0!
0(
#75000
1!
1(
b110 +
b1 /
#80000
0!
0(
#85000
1!
1(
b111 +
b1 /
#90000
0!
0(
#95000
1!
1(
b1000 +
b1 /
#100000
0!
0(
#105000
1!
1(
b1001 +
b1 /
#110000
0!
0(
#115000
1!
1(
b1010 +
b1 /
#120000
0!
0(
#125000
1!
1(
b1011 +
b1 /
#130000
0!
0(
#135000
1!
1(
b1100 +
b1 /
#140000
0!
0(
#145000
1!
1(
b1101 +
b1 /
#150000
0!
0(
#155000
1!
1(
b1110 +
b1 /
#160000
0!
0(
#165000
1!
1(
b1111 +
b1 /
#170000
0!
0(
#175000
1!
1(
b10000 +
b1 /
#180000
0!
0(
#185000
1!
1(
b10001 +
b1 /
#190000
0!
0(
#195000
1!
1(
b10010 +
b1 /
#200000
0!
0(
#205000
1!
1(
b10011 +
b1 /
#210000
0!
0(
#215000
1!
1(
b10100 +
b1 /
#220000
0!
0(
#225000
1!
1(
b10101 +
b1 /
#230000
0!
0(
#235000
1!
1(
b10110 +
b1 /
#240000
0!
0(
#245000
1!
1(
b10111 +
b1 /
#250000
0!
0(
#255000
1!
1(
b11000 +
b1 /
#260000
0!
0(
#265000
1!
1(
b11001 +
b1 /
#270000
0!
0(
#275000
1!
1(
b11010 +
b1 /
#280000
0!
0(
#285000
1!
1(
b11011 +
b1 /
#290000
0!
0(
#295000
1!
1(
b11100 +
b1 /
#300000
0!
0(
#305000
1!
1(
b11101 +
b1 /
#310000
0!
0(
#315000
1!
1(
b11110 +
b1 /
#320000
0!
0(
#325000
1!
1(
b11111 +
b1 /
#330000
0!
0(
#335000
1!
1(
b100000 +
b1 /
#340000
0!
0(
#345000
1!
1(
b100001 +
b1 /
#350000
0!
0(
#355000
1!
1(
b100010 +
b1 /
#360000
0!
0(
#365000
1!
1(
b100011 +
b1 /
#370000
0!
0(
#375000
1!
1(
b100100 +
b1 /
#380000
0!
0(
#385000
1!
1(
b100101 +
b1 /
#390000
0!
0(
#395000
1!
1(
b100110 +
b1 /
#400000
0!
0(
#405000
1!
1(
b100111 +
b1 /
#410000
0!
0(
#415000
1!
1(
b101000 +
b1 /
#420000
0!
0(
#425000
1!
1(
b101001 +
b1 /
#430000
0!
0(
#435000
1!
1(
b101010 +
b1 /
#440000
0!
0(
#445000
1!
1(
b101011 +
b1 /
#450000
0!
0(
#455000
1!
1(
b101100 +
b1 /
#460000
0!
0(
#465000
1!
1(
b101101 +
b1 /
#470000
0!
0(
#475000
1!
1(
b101110 +
b1 /
#480000
0!
0(
#485000
1!
1(
b101111 +
b1 /
#490000
0!
0(
#495000
1!
1(
b110000 +
b1 /
#500000
0!
0(
#505000
1!
1(
b110001 +
b1 /
#510000
0!
0(
#515000
1!
1(
b110010 +
b1 /
#520000
0!
0(
#525000
1!
1(
b110011 +
b1 /
#530000
0!
0(
#535000
1!
1(
b110100 +
b1 /
#540000
0!
0(
#545000
1!
1(
b110101 +
b1 /
#550000
0!
0(
#555000
1!
1(
b110110 +
b1 /
#560000
0!
0(
#565000
1!
1(
b110111 +
b1 /
#570000
0!
0(
#575000
1!
1(
b111000 +
b1 /
#580000
0!
0(
#585000
1!
1(
b111001 +
b1 /
#590000
0!
0(
#595000
1!
1(
b111010 +
b1 /
#600000
0!
0(
#605000
1!
1(
b111011 +
b1 /
#610000
0!
0(
#615000
1!
1(
b111100 +
b1 /
#620000
0!
0(
#625000
1!
1(
b111101 +
b1 /
#630000
0!
0(
#635000
1!
1(
b111110 +
b1 /
#640000
0!
0(
#645000
1!
1(
b111111 +
b1 /
#650000
0!
0(
#655000
1!
1(
b1000000 +
b1 /
#660000
0!
0(
#665000
1!
1(
b1000001 +
b1 /
#670000
0!
0(
#675000
1!
1(
b1000010 +
b1 /
#680000
0!
0(
#685000
1!
1(
b1000011 +
b1 /
#690000
0!
0(
#695000
1!
1(
b1000100 +
b1 /
#700000
0!
0(
#705000
1!
1(
b1000101 +
b1 /
#710000
0!
0(
#715000
1!
1(
b1000110 +
b1 /
#720000
0!
0(
#725000
1!
1(
b1000111 +
b1 /
#730000
0!
0(
#735000
1!
1(
b1001000 +
b1 /
#740000
0!
0(
#745000
1!
1(
b1001001 +
b1 /
#750000
0!
0(
#755000
1!
1(
b1001010 +
b1 /
#760000
0!
0(
#765000
1!
1(
b1001011 +
b1 /
#770000
0!
0(
#775000
1!
1(
b1001100 +
b1 /
#780000
0!
0(
#785000
1!
1(
b1001101 +
b1 /
#790000
0!
0(
#795000
1!
1(
b1001110 +
b1 /
#800000
0!
0(
#805000
1!
1(
b1001111 +
b1 /
#810000
0!
0(
#815000
1!
1(
b1010000 +
b1 /
#820000
0!
0(
#825000
1!
1(
b1010001 +
b1 /
#830000
0!
0(
#835000
1!
1(
b1010010 +
b1 /
#840000
0!
0(
#845000
1!
1(
b1010011 +
b1 /
#850000
0!
0(
#855000
1!
1(
b1010100 +
b1 /
#860000
0!
0(
#865000
1!
1(
b1010101 +
b1 /
#870000
0!
0(
#875000
1!
1(
b1010110 +
b1 /
#880000
0!
0(
#885000
1!
1(
b1010111 +
b1 /
#890000
0!
0(
#895000
1!
1(
b1011000 +
b1 /
#900000
0!
0(
#905000
1!
1(
b1011001 +
b1 /
#910000
0!
0(
#915000
1!
1(
b1011010 +
b1 /
#920000
0!
0(
#925000
1!
1(
b1011011 +
b1 /
#930000
0!
0(
#935000
1!
1(
b1011100 +
b1 /
#940000
0!
0(
#945000
1!
1(
b1011101 +
b1 /
#950000
0!
0(
#955000
1!
1(
b1011110 +
b1 /
#960000
0!
0(
#965000
1!
1(
b1011111 +
b1 /
#970000
0!
0(
#975000
1!
1(
b1100000 +
b1 /
#980000
0!
0(
#985000
1!
1(
b1100001 +
b1 /
#990000
0!
0(
#995000
1!
1(
b1100010 +
b1 /
